…
This sentence tells us the other important thing about `ggplot()` and the `aes()` mappings: **mapped variables each have to be in their own column**.  This is another reason that `ggplot()` requires tidy data. 

## Adding layers with `geom_*()` functions

In the above example, we added (literally, using `+`) a function called `geom_point()` to the base `ggplot()` call.  This is functionally a "layer" of our plot, that tells `ggplot2` how to actually visualize the elements specified in the `aes()` function--in the case of `geom_point()`, we create a point for each row's combination of `x = MerlynScale_Ranking` and `y = Liking`.


``` r
ca_cider_coords %>% 
  select(`Dim 1`, `Dim 2`)
```

```
## # A tibble: 28 × 2
##    `Dim 1` `Dim 2`
##      <dbl>   <dbl>
##  1 -0.309   0.0232
##  2 -0.331   0.0449
##  3  0.0151 -0.165 
##  4  0.192  -0.193 
##  5  0.225   0.137 
##  6  0.201   0.147 
##  7 -0.303   0.0826
##  8  0.0514 -0.111 
##  9  0.280   0.0580
## 10  0.0907 -0.0946
## # ℹ 18 more rows
```
…
### Powerful Text Manipulation with `stringr`

The `stringr` package is a part of the `tidyverse`, so you have it already loaded whenever you run `library(tidyverse)`. It has a lot of useful functions for working with text (called "**str**ings" in many programming languages), mostly of the form `str_*()`. One thing you can do is change labels to uppercase, lowercase, "sentence case", or "title case" (first letter of each word capitalized), as appropriate:


``` r
berry_penalty_analysis_data %>%
  select(berry) %>%
  mutate(Upper = str_to_upper(berry),
         Title = str_to_title(berry)) # Capitalizes the first letter of each word
```

```
## # A tibble: 170 × 3
##    berry      Upper      Title     
##    <chr>      <chr>      <chr>     
##  1 blackberry BLACKBERRY Blackberry
##  2 blackberry BLACKBERRY Blackberry
##  3 blackberry BLACKBERRY Blackberry
##  4 blackberry BLACKBERRY Blackberry
##  5 blackberry BLACKBERRY Blackberry
##  6 blackberry BLACKBERRY Blackberry
##  7 blackberry BLACKBERRY Blackberry
##  8 blackberry BLACKBERRY Blackberry
##  9 blackberry BLACKBERRY Blackberry
## 10 blackberry BLACKBERRY Blackberry
## # ℹ 160 more rows
```

`str_replace()` and `str_replace_all()` are very useful for dealing with underscores or periods. You give it `string`, the text vector you want to modify (inside `mutate()`, a column name); then `pattern`, the character(s) you want to replace; then `replacement`, what you want to replace them with.


``` r
berry_penalty_analysis_data %>%
  select(-count) %>%
  pivot_wider(names_from = checked,
              values_from = penalty_lift,
              names_prefix = "checked_") %>%
  mutate(cata_variable = str_replace_all(cata_variable, "_", ": "))
```

```
## # A tibble: 85 × 4
##    berry      cata_variable           checked_0 checked_1
##    <chr>      <chr>                       <dbl>     <dbl>
##  1 blackberry appearance: fresh            4.70      5.80
##  2 blackberry appearance: goodcolor        4.63      5.77
##  3 blackberry appearance: goodquality      4.69      5.96
##  4 blackberry appearance: goodshapre       4.93      5.86
##  5 blackberry appearance: misshapen        5.63      4.92
##  6 blackberry appearance: none             5.42      4.78
##  7 blackberry appearance: notfresh         5.57      3.76
##  8 blackberry appearance: unevencolor      5.53      4.53
##  9 blackberry appearane: bruised           5.53      4.67
## 10 blackberry taste: berry                 4.21      6.49
## # ℹ 75 more rows
```
…
``` r
berry_penalty_analysis_data %>%
  select(-count) %>%
  pivot_wider(names_from = checked,
              values_from = penalty_lift,
              names_prefix = "checked_") %>%
  mutate(cata_variable = str_replace_all(cata_variable,
                                         c("shapre" = "shape",
                                           "appearane" = "appearance",
                                           "_" = " ")))
```

```
## # A tibble: 85 × 4
##    berry      cata_variable          checked_0 checked_1
##    <chr>      <chr>                      <dbl>     <dbl>
##  1 blackberry appearance fresh            4.70      5.80
##  2 blackberry appearance goodcolor        4.63      5.77
##  3 blackberry appearance goodquality      4.69      5.96
##  4 blackberry appearance goodshape        4.93      5.86
##  5 blackberry appearance misshapen        5.63      4.92
##  6 blackberry appearance none             5.42      4.78
##  7 blackberry appearance notfresh         5.57      3.76
##  8 blackberry appearance unevencolor      5.53      4.53
##  9 blackberry appearance bruised          5.53      4.67
## 10 blackberry taste berry                 4.21      6.49
## # ℹ 75 more rows
```
…
```
## # A tibble: 85 × 4
##    berry      cata_variable           checked_0 checked_1
##    <chr>      <chr>                       <dbl>     <dbl>
##  1 blackberry appearance fresh             4.70      5.80
##  2 blackberry appearance good color        4.63      5.77
##  3 blackberry appearance good quality      4.69      5.96
##  4 blackberry appearance good shapre       4.93      5.86
##  5 blackberry appearance misshapen         5.63      4.92
##  6 blackberry appearance none              5.42      4.78
##  7 blackberry appearance not fresh         5.57      3.76
##  8 blackberry appearance uneven color      5.53      4.53
##  9 blackberry appearane bruised            5.53      4.67
## 10 blackberry taste berry                  4.21      6.49
## # ℹ 75 more rows
```
…
<img src="03-finetuning-ggplot_files/figure-html/manually making ordered factors-1.png" width="672" style="display: block; margin: auto;" />

Note that the attribute you list *first* when you're specifying the `levels` will become 1, then 2, then 3. With `coord_flip()`, that puts it at the bottom of the plot.


``` r
long_cider_manual_factors %>%
  distinct(cata_variable) %>%
  mutate(variable_number = as.numeric(cata_variable))
```

```
## # A tibble: 22 × 2
##    cata_variable variable_number
##    <fct>                   <dbl>
##  1 Fresh_Apples               10
##  2 Fermented                  17
##  3 Herbal                     13
##  4 Dry                         5
##  5 Spice                      12
##  6 Fruity                      8
##  7 Smooth                      4
##  8 Alcohol                    22
##  9 Light                       7
## 10 Sweet                       1
## # ℹ 12 more rows
```
…
```
## # A tibble: 85 × 4
##    berry      cata_variable   checked_0 checked_1
##    <chr>      <chr>               <dbl>     <dbl>
##  1 blackberry fresh (A)            4.70      5.80
##  2 blackberry goodcolor (A)        4.63      5.77
##  3 blackberry goodquality (A)      4.69      5.96
##  4 blackberry goodshapre (A)       4.93      5.86
##  5 blackberry misshapen (A)        5.63      4.92
##  6 blackberry none (A)             5.42      4.78
##  7 blackberry notfresh (A)         5.57      3.76
##  8 blackberry unevencolor (A)      5.53      4.53
##  9 blackberry bruised (A)          5.53      4.67
## 10 blackberry berry (T)            4.21      6.49
## # ℹ 75 more rows
```
…
``` r
berry_penalty_analysis_data %>%
  select(-count) %>%
  pivot_wider(names_from = checked,
              values_from = penalty_lift,
              names_prefix = "checked_") %>%
  mutate(cata_variable = str_replace(cata_variable,
                                     "^(.).*_(.*)",
                                     "\\2 (\\1)"),
         cata_variable = str_to_title(cata_variable))
```

```
## # A tibble: 85 × 4
##    berry      cata_variable   checked_0 checked_1
##    <chr>      <chr>               <dbl>     <dbl>
##  1 blackberry Fresh (A)            4.70      5.80
##  2 blackberry Goodcolor (A)        4.63      5.77
##  3 blackberry Goodquality (A)      4.69      5.96
##  4 blackberry Goodshapre (A)       4.93      5.86
##  5 blackberry Misshapen (A)        5.63      4.92
##  6 blackberry None (A)             5.42      4.78
##  7 blackberry Notfresh (A)         5.57      3.76
##  8 blackberry Unevencolor (A)      5.53      4.53
##  9 blackberry Bruised (A)          5.53      4.67
## 10 blackberry Berry (T)            4.21      6.49
## # ℹ 75 more rows
```
…
```
## # A tibble: 85 × 4
##    berry      cata_variable    checked_0 checked_1
##    <chr>      <chr>                <dbl>     <dbl>
##  1 blackberry Fresh (A)             4.70      5.80
##  2 blackberry Good Color (A)        4.63      5.77
##  3 blackberry Good Quality (A)      4.69      5.96
##  4 blackberry Good Shape (A)        4.93      5.86
##  5 blackberry Misshapen (A)         5.63      4.92
##  6 blackberry None (A)              5.42      4.78
##  7 blackberry Not Fresh (A)         5.57      3.76
##  8 blackberry Uneven Color (A)      5.53      4.53
##  9 blackberry Bruised (A)           5.53      4.67
## 10 blackberry Berry (T)             4.21      6.49
## # ℹ 75 more rows
```
…
