…
<img src="03-finetuning-ggplot_files/figure-html/manually making ordered factors-1.png" width="672" style="display: block; margin: auto;" />

Note that the attribute you list *first* when you're specifying the `levels` will become 1, then 2, then 3. With `coord_flip()`, that puts it at the bottom of the plot.


``` r
berry_penalty_manual_factors %>%
  distinct(cata_variable) %>%
  mutate(variable_number = as.numeric(cata_variable))
```

```
## # A tibble: 22 × 2
##    cata_variable   variable_number
##    <fct>                     <dbl>
##  1 taste_berry                   6
##  2 taste_cinnamon               19
##  3 taste_clove                  20
##  4 taste_earthy                 17
##  5 taste_fermented              18
##  6 taste_floral                 21
##  7 taste_fruity                  1
##  8 taste_grape                   5
##  9 taste_grassy                 14
## 10 taste_lemon                   9
## # ℹ 12 more rows
```
…
This is very different from what a good label in a plot looks like. You'll often want to make some sort of mass changes to column names or text variables before plotting, in order to address this.

The `stringr` package is a part of the `tidyverse`, so you have it already loaded whenever you run `library(tidyverse)`. It has a lot of useful functions for working with text (called "**str**ings" in many programming languages), mostly of the form `str_*()`. One thing you can do is change labels to uppercase, lowercase, "sentence case", or "title case" (first letter of each word capitalized), as appropriate:


``` r
berry_penalty_analysis_data %>%
  select(berry) %>%
  mutate(Upper = str_to_upper(berry),
         Title = str_to_title(berry)) # Capitalizes the first letter of each word
```

```
## # A tibble: 85 × 3
##    berry      Upper      Title     
##    <chr>      <chr>      <chr>     
##  1 blackberry BLACKBERRY Blackberry
##  2 blackberry BLACKBERRY Blackberry
##  3 blackberry BLACKBERRY Blackberry
##  4 blackberry BLACKBERRY Blackberry
##  5 blackberry BLACKBERRY Blackberry
##  6 blackberry BLACKBERRY Blackberry
##  7 blackberry BLACKBERRY Blackberry
##  8 blackberry BLACKBERRY Blackberry
##  9 blackberry BLACKBERRY Blackberry
## 10 blackberry BLACKBERRY Blackberry
## # ℹ 75 more rows
```

#### Replacing text

`str_replace()` and `str_replace_all()` are very useful for dealing with underscores or periods. You give it `string`, the text vector you want to modify (inside `mutate()`, a column name); then `pattern`, the character(s) you want to replace; then `replacement`, what you want to replace them with.


``` r
berry_penalty_analysis_data %>%
  mutate(cata_variable = str_replace_all(cata_variable, "_", ": "))
```

```
## # A tibble: 85 × 5
##    berry      cata_variable           cata_variable_clean penalty_lift count
##    <chr>      <chr>                   <chr>                      <dbl> <int>
##  1 blackberry appearance: fresh       fresh (A)                  1.10    977
##  2 blackberry appearance: goodcolor   goodcolor (A)              1.14   1037
##  3 blackberry appearance: goodquality goodquality (A)            1.26    859
##  4 blackberry appearance: goodshapre  goodshapre (A)             0.923   787
##  5 blackberry appearance: misshapen   misshapen (A)             -0.708   447
##  6 blackberry appearance: none        none (A)                  -0.641    13
##  7 blackberry appearance: notfresh    notfresh (A)              -1.81    127
##  8 blackberry appearance: unevencolor unevencolor (A)           -0.998   163
##  9 blackberry appearane: bruised      bruised (A)               -0.861   190
## 10 blackberry taste: berry            berry (T)                  2.27    793
## # ℹ 75 more rows
```
…
You can add multiple sets of `pattern`s and `replace`ments to `str_replace_all()` using a named list: `c("pattern1" = "replace1", "pattern2" = "replace2"`. This is useful to, for instance, fix multiple typos like "goodshapre". Unlike the `case_when()` example we showed before, you can fix typos that occur anywhere in the text, even if they're only parts of a word.


``` r
berry_penalty_analysis_data %>%
  mutate(cata_variable = str_replace_all(cata_variable,
                                         c("shapre" = "shape",
                                           "appearane" = "appearance",
                                           "_" = " ")))
```

```
## # A tibble: 85 × 5
##    berry      cata_variable          cata_variable_clean penalty_lift count
##    <chr>      <chr>                  <chr>                      <dbl> <int>
##  1 blackberry appearance fresh       fresh (A)                  1.10    977
##  2 blackberry appearance goodcolor   goodcolor (A)              1.14   1037
##  3 blackberry appearance goodquality goodquality (A)            1.26    859
##  4 blackberry appearance goodshape   goodshapre (A)             0.923   787
##  5 blackberry appearance misshapen   misshapen (A)             -0.708   447
##  6 blackberry appearance none        none (A)                  -0.641    13
##  7 blackberry appearance notfresh    notfresh (A)              -1.81    127
##  8 blackberry appearance unevencolor unevencolor (A)           -0.998   163
##  9 blackberry appearance bruised     bruised (A)               -0.861   190
## 10 blackberry taste berry            berry (T)                  2.27    793
## # ℹ 75 more rows
```
…
``` r
#Or it can be useful for fixing lots of similar problems all at once
berry_penalty_analysis_data %>%
  mutate(cata_variable = str_replace_all(cata_variable,
                                         c("not" = "not ",
                                           "good" = "good ",
                                           "uneven" = "uneven ",
                                           "_" = " ")))
```

```
## # A tibble: 85 × 5
##    berry      cata_variable           cata_variable_clean penalty_lift count
##    <chr>      <chr>                   <chr>                      <dbl> <int>
##  1 blackberry appearance fresh        fresh (A)                  1.10    977
##  2 blackberry appearance good color   goodcolor (A)              1.14   1037
##  3 blackberry appearance good quality goodquality (A)            1.26    859
##  4 blackberry appearance good shapre  goodshapre (A)             0.923   787
##  5 blackberry appearance misshapen    misshapen (A)             -0.708   447
##  6 blackberry appearance none         none (A)                  -0.641    13
##  7 blackberry appearance not fresh    notfresh (A)              -1.81    127
##  8 blackberry appearance uneven color unevencolor (A)           -0.998   163
##  9 blackberry appearane bruised       bruised (A)               -0.861   190
## 10 blackberry taste berry             berry (T)                  2.27    793
## # ℹ 75 more rows
```
…
There are a few versions of the `tidyr::separate_wider_*()` function that can, for example, split the `cata_variable` column into two columns, one with everything *before* the **delimiter** (here, an underscore) and one with everything *after* the delimiter. Be very careful using `separate_wider_delim()` like this if some rows may have more underscores (or whatever your delimiter is) than others.


``` r
berry_penalty_by_modality <- berry_penalty_analysis_data %>%
  separate_wider_delim(cata_variable, "_",
                       names = c("mode", "variable"),
                       cols_remove = FALSE)

berry_penalty_by_modality
```

```
## # A tibble: 85 × 7
##    berry     mode  variable cata_variable cata_variable_clean penalty_lift count
##    <chr>     <chr> <chr>    <chr>         <chr>                      <dbl> <int>
##  1 blackber… appe… fresh    appearance_f… fresh (A)                  1.10    977
##  2 blackber… appe… goodcol… appearance_g… goodcolor (A)              1.14   1037
##  3 blackber… appe… goodqua… appearance_g… goodquality (A)            1.26    859
##  4 blackber… appe… goodsha… appearance_g… goodshapre (A)             0.923   787
##  5 blackber… appe… misshap… appearance_m… misshapen (A)             -0.708   447
##  6 blackber… appe… none     appearance_n… none (A)                  -0.641    13
##  7 blackber… appe… notfresh appearance_n… notfresh (A)              -1.81    127
##  8 blackber… appe… unevenc… appearance_u… unevencolor (A)           -0.998   163
##  9 blackber… appe… bruised  appearane_br… bruised (A)               -0.861   190
## 10 blackber… taste berry    taste_berry   berry (T)                  2.27    793
## # ℹ 75 more rows
```
…
<img src="03-finetuning-ggplot_files/figure-html/using separate to split one text column into multiple-1.png" width="672" style="display: block; margin: auto;" />
(We'll get to the typo in just a second--you already know how to fix it, though!)

If you want to put multiple columns of text *together*, you can use either `tidyr::unite()` or `stringr::str_c()` (string combine).


``` r
berry_penalty_by_modality %>%
  mutate(cata_variable_2 = str_c(variable, mode, sep = " ")) %>%
  unite(variable, mode, col = "cata_variable_3", sep = " ")
```

```
## # A tibble: 85 × 7
##    berry    cata_variable_3 cata_variable cata_variable_clean penalty_lift count
##    <chr>    <chr>           <chr>         <chr>                      <dbl> <int>
##  1 blackbe… fresh appearan… appearance_f… fresh (A)                  1.10    977
##  2 blackbe… goodcolor appe… appearance_g… goodcolor (A)              1.14   1037
##  3 blackbe… goodquality ap… appearance_g… goodquality (A)            1.26    859
##  4 blackbe… goodshapre app… appearance_g… goodshapre (A)             0.923   787
##  5 blackbe… misshapen appe… appearance_m… misshapen (A)             -0.708   447
##  6 blackbe… none appearance appearance_n… none (A)                  -0.641    13
##  7 blackbe… notfresh appea… appearance_n… notfresh (A)              -1.81    127
##  8 blackbe… unevencolor ap… appearance_u… unevencolor (A)           -0.998   163
##  9 blackbe… bruised appear… appearane_br… bruised (A)               -0.861   190
## 10 blackbe… berry taste     taste_berry   berry (T)                  2.27    793
## # ℹ 75 more rows
## # ℹ 1 more variable: cata_variable_2 <chr>
```
…
```
## # A tibble: 85 × 5
##    berry      cata_variable_clean cata_variable          penalty_lift count
##    <chr>      <chr>               <chr>                         <dbl> <int>
##  1 blackberry fresh (A)           appearance_fresh              1.10    977
##  2 blackberry goodcolor (A)       appearance_goodcolor          1.14   1037
##  3 blackberry goodquality (A)     appearance_goodquality        1.26    859
##  4 blackberry goodshape (A)       appearance_goodshape          0.923   787
##  5 blackberry misshapen (A)       appearance_misshapen         -0.708   447
##  6 blackberry none (A)            appearance_none              -0.641    13
##  7 blackberry notfresh (A)        appearance_notfresh          -1.81    127
##  8 blackberry unevencolor (A)     appearance_unevencolor       -0.998   163
##  9 blackberry bruised (A)         appearance_bruised           -0.861   190
## 10 blackberry berry (T)           taste_berry                   2.27    793
## # ℹ 75 more rows
```
…
