Appendix | Publication-quality data visualizations using the R tidyverse
…
Note that the attribute you list first when you’re specifying the levels will become 1, then 2, then 3. With coord_flip(), that puts it at the bottom of the plot.

berry_penalty_manual_factors %>%
  distinct(cata_variable) %>%
  mutate(variable_number = as.numeric(cata_variable))

## # A tibble: 22 × 2
##    cata_variable   variable_number
##    <fct>                     <dbl>
##  1 taste_berry                   6
##  2 taste_cinnamon               19
##  3 taste_clove                  20
##  4 taste_earthy                 17
##  5 taste_fermented              18
##  6 taste_floral                 21
##  7 taste_fruity                  1
##  8 taste_grape                   5
##  9 taste_grassy                 14
## 10 taste_lemon                   9
## # ℹ 12 more rows
…
berry_penalty_analysis_data %>%
  select(-count) %>%
  pivot_wider(names_from = checked,
              values_from = penalty_lift,
              names_prefix = "checked_") %>%
  separate(cata_variable, 
           into = c("mode", "variable"), 
           sep = "_") %>%
  mutate(mode = case_when(mode == "taste" ~ "(T)",
                          mode == "appearance" ~ "(A)",
                          mode == "appearane" ~ "(A)")) %>%
  unite(variable, mode, col = "cata_variable", sep = " ")

## # A tibble: 85 × 4
##    berry      cata_variable   checked_0 checked_1
##    <chr>      <chr>               <dbl>     <dbl>
##  1 blackberry fresh (A)            4.70      5.80
##  2 blackberry goodcolor (A)        4.63      5.77
##  3 blackberry goodquality (A)      4.69      5.96
##  4 blackberry goodshapre (A)       4.93      5.86
##  5 blackberry misshapen (A)        5.63      4.92
##  6 blackberry none (A)             5.42      4.78
##  7 blackberry notfresh (A)         5.57      3.76
##  8 blackberry unevencolor (A)      5.53      4.53
##  9 blackberry bruised (A)          5.53      4.67
## 10 blackberry berry (T)            4.21      6.49
## # ℹ 75 more rows

With regular expressions, you can combine all of this in one step:

berry_penalty_analysis_data %>%
  select(-count) %>%
  pivot_wider(names_from = checked,
              values_from = penalty_lift,
              names_prefix = "checked_") %>%
  mutate(cata_variable = str_replace(cata_variable,
                                     "^(.).*_(.*)",
                                     "\\2 (\\1)"),
         cata_variable = str_to_title(cata_variable))

## # A tibble: 85 × 4
##    berry      cata_variable   checked_0 checked_1
##    <chr>      <chr>               <dbl>     <dbl>
##  1 blackberry Fresh (A)            4.70      5.80
##  2 blackberry Goodcolor (A)        4.63      5.77
##  3 blackberry Goodquality (A)      4.69      5.96
##  4 blackberry Goodshapre (A)       4.93      5.86
##  5 blackberry Misshapen (A)        5.63      4.92
##  6 blackberry None (A)             5.42      4.78
##  7 blackberry Notfresh (A)         5.57      3.76
##  8 blackberry Unevencolor (A)      5.53      4.53
##  9 blackberry Bruised (A)          5.53      4.67
## 10 blackberry Berry (T)            4.21      6.49
## # ℹ 75 more rows
…
berry_penalty_analysis_data %>%
  select(-count) %>%
  pivot_wider(names_from = checked,
              values_from = penalty_lift,
              names_prefix = "checked_") %>%
  mutate(cata_variable = str_replace_all(cata_variable,
                                         c("^(.).*_(.*)" = "\\2 (\\1)",
                                           "good" = "good ",
                                           "not" = "not ",
                                           "shapre" = "shape",
                                           "uneven" = "uneven ")),
         cata_variable = str_to_title(cata_variable))

## # A tibble: 85 × 4
##    berry      cata_variable    checked_0 checked_1
##    <chr>      <chr>                <dbl>     <dbl>
##  1 blackberry Fresh (A)             4.70      5.80
##  2 blackberry Good Color (A)        4.63      5.77
##  3 blackberry Good Quality (A)      4.69      5.96
##  4 blackberry Good Shape (A)        4.93      5.86
##  5 blackberry Misshapen (A)         5.63      4.92
##  6 blackberry None (A)              5.42      4.78
##  7 blackberry Not Fresh (A)         5.57      3.76
##  8 blackberry Uneven Color (A)      5.53      4.53
##  9 blackberry Bruised (A)           5.53      4.67
## 10 blackberry Berry (T)             4.21      6.49
## # ℹ 75 more rows
…
