2 The basics of plotting with ggplot2 | Publication-quality data visualizations using the R tidyverse
…
The second, mapping =, is less clear. This argument requires the aes() function, which can be read as the “aesthetic” function. The way that this function works is quite complex, and really not worth digging into here, but I understand it in my head as telling ggplot() what part of my data is going to connect to what part of the plot. So, if we write aes(x = `Dim 1`), we can read this in our heads as “the values of x will be mapped from the ‘Dim 1’ column”.

NB: The use of the ` character in `Dim 1` is because the name is technically “non-syntactic”: it has a space in it. R allows us to save objects with names that violate the rules–containing whitespace (), starting with a number character, or including characters like (, ), $, etc–by using the ` operators. The {tidyverse} functions do this automatically.

This sentence tells us the other important thing about ggplot() and the aes() mappings: mapped variables each have to be in their own column. This is another reason that ggplot() requires tidy data.

2.3 Adding layers with geom_*() functions

In the above example, we added (literally, using +) a function called geom_point() to the base ggplot() call. This is functionally a “layer” of our plot, that tells ggplot2 how to actually visualize the elements specified in the aes() function–in the case of geom_point(), we create a point for each row’s combination of x = `Dim 1` and y = `Dim 2`.

ca_cider_coords %>% 
  select(`Dim 1`, `Dim 2`)

## # A tibble: 28 × 2
##    `Dim 1` `Dim 2`
##      <dbl>   <dbl>
##  1 -0.309   0.0232
##  2 -0.331   0.0449
##  3  0.0151 -0.165 
##  4  0.192  -0.193 
##  5  0.225   0.137 
##  6  0.201   0.147 
##  7 -0.303   0.0826
##  8  0.0514 -0.111 
##  9  0.280   0.0580
## 10  0.0907 -0.0946
## # ℹ 18 more rows
…
